{"response body": {"id": "011d291d-b95e-4827-8c6f-a3bdb74ffcf7", "object": "chat.completion", "model": "gpt-4-32k", "created": "2024-12-26 16:02:11", "choices": [{"index": 0, "finish_reason": "stop", "message": {"role": "assistant", "content": "\"\"\"\nThe class provides utility methods for handling paginated data.\n\"\"\"\n\nclass PageUtil:\n    def __init__(self, data, page_size):\n        \"\"\"\n        Initialization method for the PageUtil class.\n        \n        Parameters:\n            data (list): The list of data to be paginated.\n            page_size (int): The number of items per page.\n        \"\"\"\n        self.data = data\n        self.page_size = page_size\n        self.total_items = len(data)\n        self.total_pages = (self.total_items + page_size - 1) // page_size\n\n    def get_page(self, page_number):\n        \"\"\"\n        Returns a list of items on the specified page number.\n        \n        Parameters:\n            page_number (int): The page number to return items from.\n            \n        Returns:\n            list: A list of items on the specified page. If the page_number is out of range, returns an empty list.\n            \n        Test cases:\n            # Test case 1: Normal usage\n            data = [1, 2, 3, 4, 5, 6]\n            page_util = PageUtil(data, 2)\n            assert page_util.get_page(2) == [3, 4]\n\n            # Test case 2: Page number out of range\n            assert page_util.get_page(4) == []\n\n            # Test case 3: Page number less than 1\n            assert page_util.get_page(0) == []\n        \"\"\"\n        if page_number < 1 or page_number > self.total_pages:\n            return []\n\n        start_index = (page_number - 1) * self.page_size\n        end_index = start_index + self.page_size\n        return self.data[start_index:end_index]\n\n    def get_page_info(self, page_number):\n        \"\"\"\n        Returns a dictionary containing information about the specified page.\n        \n        Parameters:\n            page_number (int): The page number to return information about.\n            \n        Returns:\n            dict: A dictionary with information about the page. If the page_number is out of range, returns an empty dictionary.\n            \n        Test cases:\n            # Test case 1: Normal usage\n            data = [1, 2, 3, 4, 5, 6]\n            page_util = PageUtil(data, 2)\n            expected_output = {\n                \"current_page\": 2,\n                \"per_page\": 2,\n                \"total_pages\": 3,\n                \"total_items\": 6,\n                \"has_previous\": True,\n                \"has_next\": True,\n                \"data\": [3, 4]\n            }\n            assert page_util.get_page_info(2) == expected_output\n\n            # Test case 2: Page number out of range\n            assert page_util.get_page_info(4) == {}\n\n            # Test case 3: Page number less than 1\n            assert page_util.get_page_info(0) == {}\n        \"\"\"\n        if page_number < 1 or page_number > self.total_pages:\n            return {}\n\n        start_index = (page_number - 1) * self.page_size\n        end_index = min(start_index + self.page_size, self.total_items)\n        page_data = self.data[start_index:end_index]\n\n        page_info = {\n            \"current_page\": page_number,\n            \"per_page\": self.page_size,\n            \"total_pages\": self.total_pages,\n            \"total_items\": self.total_items,\n            \"has_previous\": page_number > 1,\n            \"has_next\": page_number < self.total_pages,\n            \"data\": page_data\n        }\n        return page_info\n\n    def search(self, keyword):\n        \"\"\"\n        Returns a dictionary containing search results and related information.\n        \n        Parameters:\n            keyword (str): The keyword to search for.\n            \n        Returns:\n            dict: A dictionary containing search results and related information.\n            \n        Test cases:\n            # Test case 1: Normal usage\n            data = ['apple', 'banana', 'cherry', 'date', 'elderberry']\n            page_util = PageUtil(data, 2)\n            expected_output = {\n                \"keyword\": \"a\",\n                \"total_results\": 4,\n                \"total_pages\": 2,\n                \"results\": ['apple', 'banana', 'date', 'elderberry']\n            }\n            assert page_util.search('a') == expected_output\n\n            # Test case 2: Keyword not found in data\n            assert page_util.search('z') == {\n                \"keyword\": \"z\",\n                \"total_results\": 0,\n                \"total_pages\": 0,\n                \"results\": []\n            }\n\n            # Test case 3: Empty keyword\n            assert page_util.search('') == {\n                \"keyword\": \"\",\n                \"total_results\": 5,\n                \"total_pages\": 3,\n                \"results\": ['apple', 'banana', 'cherry', 'date', 'elderberry']\n            }\n        \"\"\"\n        results = [item for item in self.data if keyword in str(item)]\n        num_results = len(results)\n        num_pages = (num_results + self.page_size - 1) // self.page_size\n\n        search_info = {\n            \"keyword\": keyword,\n            \"total_results\": num_results,\n            \"total_pages\": num_pages,\n            \"results\": results\n        }\n        return search_info"}}], "usage": {"completion_tokens": 1095, "prompt_tokens": 1429, "total_tokens": 2524}, "feeType": "1", "consume": 1.577884}, "test_case_name": "PageUtil.txt"}